…
Passing the date format of the DataTime columns is sufficient for parsing their values. Thus, in the previous code, we only passed the `dtformat` keyword argument for the second and third column.

In the next step, we store the data types of the columns in an array and pass it to the `filereader` function to process the whole file. Note that for date values in non-standard form we need to pass the `dtformat` keyword argument.

```julia
julia> _tmp = content(taxi, output = true)[2];

julia> alltypes = identity.(_tmp[:, :eltype]);

julia> taxi = filereader(taxi_file, linebreak = ['\r','\n'], 
                            types = alltypes, 
                            dtformat = Dict(2:3 .=> dateformat"y-m-d H:M:S"))
┌ Info: There might be more observations in the input file at line 11 (observation 10) than the number of columns in the output dataset.
└  CMT,2010-03-15 15:35:04,2010-03-15 16:00:07,1,5.2000000000000002,-73.993639000000002,40.720208999999997,1,,,-73.946438000000001,40.778773999999999,Cas,16.100000000000001,0,0.5,0,0,16.600000000000001.
┌ Warning: There are problems with parsing the input file at line 11 (observation 10) : 
│ Column 13 : fare_amount::Float64 : Read from buffer ("Cas")
│  the values are set as missing.
│ MORE DETAILS: 
│ vendor_id::String = CMT, pickup_datetime::DateTime = 2010-03-15T15:35:04, dropoff_datetime::DateTime = 2010-03-15T16:00:07, passenger_count::Int64 = 1, trip_distance::Float64 = 5.2, pickup_longitude::Float64 = -73.993639, pickup_latitude::Float64 = 40.720209, rate_code::Int64 = 1, store_and_fwd_flag::Int64 = missing, dropoff_longitude::Float64 = missing, dropoff_latitude::Float64 = -73.946438, payment_type::String = 40.778773999999999, fare_amount::Float64 = missing, surcharge::Float64 = 16.1, mta_tax::Float64 = 0.0, tip_amount::Float64 = 0.5, tolls_amount::Float64 = 0.0, total_amount::Float64 = 0.0
│ CMT,2010-03-15 15:35:04,2010-03-15 16:00:07,1,5.2000000000000002,-73.993639000000002,40.720208999999997,1,,,-73.946438000000001,40.778773999999999,Cas,16.100000000000001,0,0.5,0,0,16.600000000000001
└ @ DLMReader ...
20×18 Dataset
 Row │ vendor_id  pickup_datetime      dropoff_datetime     passenger_count  trip_distance  pickup_longitude  pickup_latitude  rate_code  store_and_fwd_flag  dropoff_longitude   ⋯
     │ identity   identity             identity             identity         identity       identity          identity         identity   identity            identity            ⋯
     │ String?    DateTime?            DateTime?            Int64?           Float64?       Float64?          Float64?         Int64?     Int64?              Float64?            ⋯
─────┼─────────────────────────────────────────────────────────────────────────────────────────────────────────────────────────────────────────────────────────────────────────────
   1 │ CMT        2010-03-15T15:29:46  2010-03-15T15:34:09                1            0.8          -74.0047          40.7343          1                   0           -73.9936   ⋯
   2 │ CMT        2010-03-15T11:44:31  2010-03-15T11:48:48                1            0.3          -73.9584          40.7729          1                   0           -73.9636
  ⋮  │     ⋮               ⋮                    ⋮                  ⋮               ⋮               ⋮                 ⋮             ⋮              ⋮                   ⋮           ⋱
  19 │ CMT        2010-03-15T14:31:04  2010-03-15T14:40:03                1            0.9          -73.9977          40.7412          1                   0           -73.9834
  20 │ CMT        2010-03-15T12:20:25  2010-03-15T12:26:38                1            0.9          -73.9983          40.7454          1                   0           -73.9954
                                                                                                                                                      8 columns and 16 rows omitted
```
…
